EESchema Schematic File Version 4
EELAYER 30 0
EELAYER END
$Descr A4 11693 8268
encoding utf-8
Sheet 1 1
Title ""
Date ""
Rev ""
Comp ""
Comment1 ""
Comment2 ""
Comment3 ""
Comment4 ""
$EndDescr
$Comp
L Connector:Conn_01x02_Male J1
U 1 1 5FF30EAC
P 1000 1800
F 0 "J1" H 1108 1981 50  0000 C CNN
F 1 "12V" H 1108 1890 50  0000 C CNN
F 2 "TerminalBlock:TerminalBlock_bornier-2_P5.08mm" H 1000 1800 50  0001 C CNN
F 3 "~" H 1000 1800 50  0001 C CNN
	1    1000 1800
	1    0    0    -1  
$EndComp
$Comp
L power:GND #PWR02
U 1 1 5FF311A1
P 1200 1900
F 0 "#PWR02" H 1200 1650 50  0001 C CNN
F 1 "GND" H 1205 1727 50  0000 C CNN
F 2 "" H 1200 1900 50  0001 C CNN
F 3 "" H 1200 1900 50  0001 C CNN
	1    1200 1900
	1    0    0    -1  
$EndComp
Wire Wire Line
	3150 1800 3150 3150
$Comp
L Regulator_Controller:UC3843_DIP8 U1
U 1 1 5FF32F99
P 3150 3550
F 0 "U1" H 3450 4100 50  0000 C CNN
F 1 "UC3843_DIP8" H 3450 4000 50  0000 C CNN
F 2 "Package_DIP:DIP-8_W7.62mm" H 3150 3050 50  0001 C CNN
F 3 "http://www.ti.com/lit/ds/symlink/uc3842.pdf" H 3150 3550 50  0001 C CNN
	1    3150 3550
	1    0    0    -1  
$EndComp
$Comp
L Device:R R3
U 1 1 5FF344D4
P 4100 3350
F 0 "R3" V 3893 3350 50  0000 C CNN
F 1 "22" V 3984 3350 50  0000 C CNN
F 2 "Resistor_THT:R_Axial_DIN0204_L3.6mm_D1.6mm_P7.62mm_Horizontal" V 4030 3350 50  0001 C CNN
F 3 "~" H 4100 3350 50  0001 C CNN
	1    4100 3350
	0    1    1    0   
$EndComp
$Comp
L Device:Q_NMOS_GDS Q1
U 1 1 5FF34BEA
P 4700 3350
F 0 "Q1" H 4904 3396 50  0000 L CNN
F 1 "Q_NMOS_GDS" H 4904 3305 50  0000 L CNN
F 2 "Package_TO_SOT_THT:TO-220-3_Vertical" H 4900 3450 50  0001 C CNN
F 3 "~" H 4700 3350 50  0001 C CNN
	1    4700 3350
	1    0    0    -1  
$EndComp
Wire Wire Line
	4500 3350 4450 3350
Wire Wire Line
	3950 3350 3650 3350
$Comp
L Device:R R6
U 1 1 5FF35CB2
P 4800 4100
F 0 "R6" H 4870 4146 50  0000 L CNN
F 1 "0.1" H 4870 4055 50  0000 L CNN
F 2 "Resistor_THT:R_Axial_DIN0207_L6.3mm_D2.5mm_P2.54mm_Vertical" V 4730 4100 50  0001 C CNN
F 3 "~" H 4800 4100 50  0001 C CNN
	1    4800 4100
	1    0    0    -1  
$EndComp
Wire Wire Line
	4800 3950 4800 3750
$Comp
L Device:R R4
U 1 1 5FF363F7
P 4200 3750
F 0 "R4" V 3993 3750 50  0000 C CNN
F 1 "1k" V 4084 3750 50  0000 C CNN
F 2 "Resistor_THT:R_Axial_DIN0204_L3.6mm_D1.6mm_P7.62mm_Horizontal" V 4130 3750 50  0001 C CNN
F 3 "~" H 4200 3750 50  0001 C CNN
	1    4200 3750
	0    1    1    0   
$EndComp
$Comp
L Device:C_Small C6
U 1 1 5FF37328
P 3900 4000
F 0 "C6" H 3808 3954 50  0000 R CNN
F 1 "470p" H 3808 4045 50  0000 R CNN
F 2 "Capacitor_THT:C_Disc_D4.3mm_W1.9mm_P5.00mm" H 3900 4000 50  0001 C CNN
F 3 "~" H 3900 4000 50  0001 C CNN
	1    3900 4000
	-1   0    0    1   
$EndComp
$Comp
L power:GND #PWR09
U 1 1 5FF37C2E
P 4800 4250
F 0 "#PWR09" H 4800 4000 50  0001 C CNN
F 1 "GND" H 4805 4077 50  0000 C CNN
F 2 "" H 4800 4250 50  0001 C CNN
F 3 "" H 4800 4250 50  0001 C CNN
	1    4800 4250
	1    0    0    -1  
$EndComp
$Comp
L power:GND #PWR07
U 1 1 5FF380BC
P 3900 4100
F 0 "#PWR07" H 3900 3850 50  0001 C CNN
F 1 "GND" H 3905 3927 50  0000 C CNN
F 2 "" H 3900 4100 50  0001 C CNN
F 3 "" H 3900 4100 50  0001 C CNN
	1    3900 4100
	1    0    0    -1  
$EndComp
Wire Wire Line
	3900 3900 3900 3750
Wire Wire Line
	3900 3750 3650 3750
Wire Wire Line
	4050 3750 3900 3750
Connection ~ 3900 3750
Wire Wire Line
	4350 3750 4800 3750
Connection ~ 4800 3750
Wire Wire Line
	4800 3750 4800 3550
$Comp
L Device:C_Small C5
U 1 1 5FF38BB9
P 2750 2000
F 0 "C5" H 2842 2046 50  0000 L CNN
F 1 "100n" H 2842 1955 50  0000 L CNN
F 2 "Capacitor_THT:C_Disc_D4.3mm_W1.9mm_P5.00mm" H 2750 2000 50  0001 C CNN
F 3 "~" H 2750 2000 50  0001 C CNN
	1    2750 2000
	1    0    0    -1  
$EndComp
Wire Wire Line
	2750 1900 2750 1800
Connection ~ 2750 1800
Wire Wire Line
	2750 1800 3150 1800
Wire Wire Line
	1200 1800 1650 1800
$Comp
L Device:CP C3
U 1 1 5FF3AB02
P 2300 2100
F 0 "C3" H 2418 2146 50  0000 L CNN
F 1 "6800u/25V" H 2100 2500 50  0000 L CNN
F 2 "Capacitor_THT:CP_Radial_D16.0mm_P7.50mm" H 2338 1950 50  0001 C CNN
F 3 "~" H 2300 2100 50  0001 C CNN
	1    2300 2100
	1    0    0    -1  
$EndComp
Wire Wire Line
	2300 1950 2300 1800
Wire Wire Line
	2300 1800 2750 1800
$Comp
L power:GND #PWR03
U 1 1 5FF3B028
P 2300 2250
F 0 "#PWR03" H 2300 2000 50  0001 C CNN
F 1 "GND" H 2305 2077 50  0000 C CNN
F 2 "" H 2300 2250 50  0001 C CNN
F 3 "" H 2300 2250 50  0001 C CNN
	1    2300 2250
	1    0    0    -1  
$EndComp
$Comp
L power:GND #PWR05
U 1 1 5FF3B383
P 2750 2100
F 0 "#PWR05" H 2750 1850 50  0001 C CNN
F 1 "GND" H 2755 1927 50  0000 C CNN
F 2 "" H 2750 2100 50  0001 C CNN
F 3 "" H 2750 2100 50  0001 C CNN
	1    2750 2100
	1    0    0    -1  
$EndComp
Wire Wire Line
	3750 1800 3150 1800
Connection ~ 3150 1800
Wire Wire Line
	4250 1800 4800 1800
Wire Wire Line
	4800 1800 4800 3150
$Comp
L Device:D_Schottky D1
U 1 1 5FF3D36F
P 5200 1800
F 0 "D1" H 5200 1583 50  0000 C CNN
F 1 "D_Schottky" H 5200 1674 50  0000 C CNN
F 2 "Package_TO_SOT_THT:TO-220-2_Vertical" H 5200 1800 50  0001 C CNN
F 3 "~" H 5200 1800 50  0001 C CNN
	1    5200 1800
	-1   0    0    1   
$EndComp
Wire Wire Line
	5050 1800 4800 1800
Connection ~ 4800 1800
$Comp
L Device:CP C7
U 1 1 5FF3E1FC
P 5600 2100
F 0 "C7" H 5718 2146 50  0000 L CNN
F 1 "1000u/50V" H 5718 2055 50  0000 L CNN
F 2 "Capacitor_THT:CP_Radial_D13.0mm_P5.00mm" H 5638 1950 50  0001 C CNN
F 3 "~" H 5600 2100 50  0001 C CNN
	1    5600 2100
	1    0    0    -1  
$EndComp
Wire Wire Line
	5600 1950 5600 1800
Wire Wire Line
	5600 1800 5350 1800
Connection ~ 5600 1800
$Comp
L power:GND #PWR010
U 1 1 5FF4103E
P 5600 2250
F 0 "#PWR010" H 5600 2000 50  0001 C CNN
F 1 "GND" H 5605 2077 50  0000 C CNN
F 2 "" H 5600 2250 50  0001 C CNN
F 3 "" H 5600 2250 50  0001 C CNN
	1    5600 2250
	1    0    0    -1  
$EndComp
$Comp
L power:GND #PWR06
U 1 1 5FF44DC2
P 3150 3950
F 0 "#PWR06" H 3150 3700 50  0001 C CNN
F 1 "GND" H 3155 3777 50  0000 C CNN
F 2 "" H 3150 3950 50  0001 C CNN
F 3 "" H 3150 3950 50  0001 C CNN
	1    3150 3950
	1    0    0    -1  
$EndComp
$Comp
L Device:C_Small C2
U 1 1 5FF451BE
P 2050 3050
F 0 "C2" H 1958 3004 50  0000 R CNN
F 1 "1n" H 1958 3095 50  0000 R CNN
F 2 "Capacitor_THT:C_Disc_D4.3mm_W1.9mm_P5.00mm" H 2050 3050 50  0001 C CNN
F 3 "~" H 2050 3050 50  0001 C CNN
	1    2050 3050
	-1   0    0    1   
$EndComp
$Comp
L Device:R R1
U 1 1 5FF458BC
P 1800 3050
F 0 "R1" H 1650 3100 50  0000 L CNN
F 1 "100k" H 1550 3000 50  0000 L CNN
F 2 "Resistor_THT:R_Axial_DIN0204_L3.6mm_D1.6mm_P7.62mm_Horizontal" V 1730 3050 50  0001 C CNN
F 3 "~" H 1800 3050 50  0001 C CNN
	1    1800 3050
	1    0    0    -1  
$EndComp
Wire Wire Line
	1800 2800 1800 2900
Wire Wire Line
	2050 2950 2050 2800
Connection ~ 2050 2800
Wire Wire Line
	2050 2800 1800 2800
Wire Wire Line
	1800 3300 1800 3200
Wire Wire Line
	2050 3150 2050 3300
Wire Wire Line
	2050 3300 1800 3300
$Comp
L Device:C_Small C1
U 1 1 5FF4AF5F
P 1800 3950
F 0 "C1" H 1892 3996 50  0000 L CNN
F 1 "100n" H 1892 3905 50  0000 L CNN
F 2 "Capacitor_THT:C_Disc_D4.3mm_W1.9mm_P5.00mm" H 1800 3950 50  0001 C CNN
F 3 "~" H 1800 3950 50  0001 C CNN
	1    1800 3950
	1    0    0    -1  
$EndComp
Wire Wire Line
	1800 3850 1800 3750
$Comp
L power:GND #PWR01
U 1 1 5FF50C65
P 1800 4050
F 0 "#PWR01" H 1800 3800 50  0001 C CNN
F 1 "GND" H 1805 3877 50  0000 C CNN
F 2 "" H 1800 4050 50  0001 C CNN
F 3 "" H 1800 4050 50  0001 C CNN
	1    1800 4050
	1    0    0    -1  
$EndComp
Wire Wire Line
	2650 2800 2650 3350
Wire Wire Line
	2050 2800 2650 2800
Wire Wire Line
	1800 3650 2650 3650
$Comp
L Device:R R2
U 1 1 5FF55843
P 2200 3750
F 0 "R2" V 1950 3750 50  0000 C CNN
F 1 "10k" V 2050 3750 50  0000 C CNN
F 2 "Resistor_THT:R_Axial_DIN0204_L3.6mm_D1.6mm_P7.62mm_Horizontal" V 2130 3750 50  0001 C CNN
F 3 "~" H 2200 3750 50  0001 C CNN
	1    2200 3750
	0    1    1    0   
$EndComp
Wire Wire Line
	2350 3750 2550 3750
Wire Wire Line
	2050 3750 1800 3750
Connection ~ 1800 3750
Wire Wire Line
	1800 3750 1800 3650
$Comp
L Device:C_Small C4
U 1 1 5FF57C03
P 2550 3950
F 0 "C4" H 2458 3904 50  0000 R CNN
F 1 "2.2n" H 2458 3995 50  0000 R CNN
F 2 "Capacitor_THT:C_Disc_D4.3mm_W1.9mm_P5.00mm" H 2550 3950 50  0001 C CNN
F 3 "~" H 2550 3950 50  0001 C CNN
	1    2550 3950
	-1   0    0    1   
$EndComp
Wire Wire Line
	2550 3850 2550 3750
Connection ~ 2550 3750
Wire Wire Line
	2550 3750 2650 3750
$Comp
L power:GND #PWR04
U 1 1 5FF58D94
P 2550 4050
F 0 "#PWR04" H 2550 3800 50  0001 C CNN
F 1 "GND" H 2555 3877 50  0000 C CNN
F 2 "" H 2550 4050 50  0001 C CNN
F 3 "" H 2550 4050 50  0001 C CNN
	1    2550 4050
	1    0    0    -1  
$EndComp
$Comp
L Device:R R5
U 1 1 5FF5BC30
P 4450 4100
F 0 "R5" H 4520 4146 50  0000 L CNN
F 1 "10k" H 4520 4055 50  0000 L CNN
F 2 "Resistor_THT:R_Axial_DIN0204_L3.6mm_D1.6mm_P7.62mm_Horizontal" V 4380 4100 50  0001 C CNN
F 3 "~" H 4450 4100 50  0001 C CNN
	1    4450 4100
	1    0    0    -1  
$EndComp
Wire Wire Line
	4450 3950 4450 3350
Connection ~ 4450 3350
Wire Wire Line
	4450 3350 4250 3350
$Comp
L power:GND #PWR08
U 1 1 5FF5CDE3
P 4450 4250
F 0 "#PWR08" H 4450 4000 50  0001 C CNN
F 1 "GND" H 4455 4077 50  0000 C CNN
F 2 "" H 4450 4250 50  0001 C CNN
F 3 "" H 4450 4250 50  0001 C CNN
	1    4450 4250
	1    0    0    -1  
$EndComp
Wire Wire Line
	1600 3450 1600 4900
Wire Wire Line
	1600 3450 1800 3450
Wire Wire Line
	1800 3300 1800 3450
Connection ~ 1800 3300
Connection ~ 1800 3450
Wire Wire Line
	1800 3450 2650 3450
Wire Wire Line
	9050 1800 9850 1800
Connection ~ 9050 1800
Wire Wire Line
	9050 4300 9050 1800
Wire Wire Line
	9050 4900 9050 4600
Connection ~ 9050 4900
Wire Wire Line
	9050 5150 9050 4900
$Comp
L power:GND #PWR013
U 1 1 5FF62833
P 9050 5450
F 0 "#PWR013" H 9050 5200 50  0001 C CNN
F 1 "GND" H 9055 5277 50  0000 C CNN
F 2 "" H 9050 5450 50  0001 C CNN
F 3 "" H 9050 5450 50  0001 C CNN
	1    9050 5450
	1    0    0    -1  
$EndComp
$Comp
L Device:R R9
U 1 1 5FF620F2
P 9050 5300
F 0 "R9" H 9120 5346 50  0000 L CNN
F 1 "10k" H 9120 5255 50  0000 L CNN
F 2 "Resistor_THT:R_Axial_DIN0204_L3.6mm_D1.6mm_P7.62mm_Horizontal" V 8980 5300 50  0001 C CNN
F 3 "~" H 9050 5300 50  0001 C CNN
	1    9050 5300
	1    0    0    -1  
$EndComp
$Comp
L Device:R R8
U 1 1 5FF6186C
P 9050 4450
F 0 "R8" H 9120 4496 50  0000 L CNN
F 1 "120k" H 9120 4405 50  0000 L CNN
F 2 "Resistor_THT:R_Axial_DIN0204_L3.6mm_D1.6mm_P7.62mm_Horizontal" V 8980 4450 50  0001 C CNN
F 3 "~" H 9050 4450 50  0001 C CNN
	1    9050 4450
	1    0    0    -1  
$EndComp
Connection ~ 8400 1800
Wire Wire Line
	8400 1800 9050 1800
$Comp
L power:GND #PWR014
U 1 1 5FF448EF
P 9850 1900
F 0 "#PWR014" H 9850 1650 50  0001 C CNN
F 1 "GND" H 9855 1727 50  0000 C CNN
F 2 "" H 9850 1900 50  0001 C CNN
F 3 "" H 9850 1900 50  0001 C CNN
	1    9850 1900
	1    0    0    -1  
$EndComp
$Comp
L Connector:Conn_01x02_Male J2
U 1 1 5FF43AE0
P 10050 1900
F 0 "J2" H 10022 1782 50  0000 R CNN
F 1 "OUT" H 10022 1873 50  0000 R CNN
F 2 "TerminalBlock:TerminalBlock_bornier-2_P5.08mm" H 10050 1900 50  0001 C CNN
F 3 "~" H 10050 1900 50  0001 C CNN
	1    10050 1900
	-1   0    0    1   
$EndComp
$Comp
L power:GND #PWR012
U 1 1 5FF432ED
P 8400 2650
F 0 "#PWR012" H 8400 2400 50  0001 C CNN
F 1 "GND" H 8405 2477 50  0000 C CNN
F 2 "" H 8400 2650 50  0001 C CNN
F 3 "" H 8400 2650 50  0001 C CNN
	1    8400 2650
	1    0    0    -1  
$EndComp
Wire Wire Line
	8400 1950 8400 1800
Wire Wire Line
	8400 2350 8400 2250
$Comp
L Device:R R7
U 1 1 5FF4246D
P 8400 2500
F 0 "R7" H 8470 2546 50  0000 L CNN
F 1 "1k" H 8470 2455 50  0000 L CNN
F 2 "Resistor_THT:R_Axial_DIN0204_L3.6mm_D1.6mm_P7.62mm_Horizontal" V 8330 2500 50  0001 C CNN
F 3 "~" H 8400 2500 50  0001 C CNN
	1    8400 2500
	1    0    0    -1  
$EndComp
$Comp
L Device:LED D2
U 1 1 5FF41B73
P 8400 2100
F 0 "D2" V 8439 1982 50  0000 R CNN
F 1 "LED" V 8348 1982 50  0000 R CNN
F 2 "LED_THT:LED_D5.0mm" H 8400 2100 50  0001 C CNN
F 3 "~" H 8400 2100 50  0001 C CNN
	1    8400 2100
	0    -1   -1   0   
$EndComp
Wire Wire Line
	1600 4900 9050 4900
$Comp
L Device:Fuse F1
U 1 1 5FF5F496
P 1800 1800
F 0 "F1" V 1603 1800 50  0000 C CNN
F 1 "10A" V 1694 1800 50  0000 C CNN
F 2 "Fuse:Fuse_Littelfuse_372_D8.50mm" V 1730 1800 50  0001 C CNN
F 3 "~" H 1800 1800 50  0001 C CNN
	1    1800 1800
	0    1    1    0   
$EndComp
Wire Wire Line
	1950 1800 2300 1800
Connection ~ 2300 1800
$Comp
L pspice:INDUCTOR L1
U 1 1 5FF3BB51
P 4000 1800
F 0 "L1" H 4000 2015 50  0000 C CNN
F 1 "INDUCTOR" H 4000 1924 50  0000 C CNN
F 2 "Inductor_THT:L_Toroid_Vertical_L22.4mm_W10.2mm_P7.90mm_Vishay_TJ4" H 4000 1800 50  0001 C CNN
F 3 "~" H 4000 1800 50  0001 C CNN
	1    4000 1800
	1    0    0    -1  
$EndComp
Wire Wire Line
	5600 1800 8400 1800
$EndSCHEMATC
